Homework 5
…
ℹ Use `spec()` to retrieve the full column specification for this data.
ℹ Specify the column types or set `show_col_types = FALSE` to quiet this message.

data_join1 <- inner_join(data_mat, data_por, by=c("school","sex","age","address","famsize","Pstatus","Medu","Fedu","Mjob","Fjob","reason","nursery","internet"))

Warning in inner_join(data_mat, data_por, by = c("school", "sex", "age", : Detected an unexpected many-to-many relationship between `x` and `y`.
ℹ Row 79 of `x` matches multiple rows in `y`.
ℹ Row 79 of `y` matches multiple rows in `x`.
ℹ If a many-to-many relationship is expected, set `relationship =
  "many-to-many"` to silence this warning.

data_join1

# A tibble: 382 × 53
   school sex     age address famsize Pstatus  Medu  Fedu Mjob     Fjob   reason
   <chr>  <chr> <dbl> <chr>   <chr>   <chr>   <dbl> <dbl> <chr>    <chr>  <chr> 
 1 GP     F        18 U       GT3     A           4     4 at_home  teach… course
 2 GP     F        17 U       GT3     T           1     1 at_home  other  course
 3 GP     F        15 U       LE3     T           1     1 at_home  other  other 
 4 GP     F        15 U       GT3     T           4     2 health   servi… home  
 5 GP     F        16 U       GT3     T           3     3 other    other  home  
 6 GP     M        16 U       LE3     T           4     3 services other  reput…
 7 GP     M        16 U       LE3     T           2     2 other    other  home  
 8 GP     F        17 U       GT3     A           4     4 other    teach… home  
 9 GP     M        15 U       LE3     A           3     2 services other  home  
10 GP     M        15 U       GT3     T           3     4 other    other  home  
# ℹ 372 more rows
# ℹ 42 more variables: guardian.x <chr>, traveltime.x <dbl>, studytime.x <dbl>,
#   failures.x <dbl>, schoolsup.x <chr>, famsup.x <chr>, paid.x <chr>,
#   activities.x <chr>, nursery <chr>, higher.x <chr>, internet <chr>,
#   romantic.x <chr>, famrel.x <dbl>, freetime.x <dbl>, goout.x <dbl>,
#   Dalc.x <dbl>, Walc.x <dbl>, health.x <dbl>, absences.x <dbl>, G1.x <dbl>,
#   G2.x <dbl>, G3.x <dbl>, guardian.y <chr>, traveltime.y <dbl>, …

The problem we see is that row 79 of data_mat matches multiple rows of data-por. This means rows won’t be joined in a one-to-one fashion.

Now we do an inner join on the math and portuguese data by all variables except G1, G2, G3, paid, and absences.

data_join2 <- inner_join(data_mat, data_por, by = names(data_mat)[!(names(data_mat) %in% c('G1', 'G2', 'G3', 'paid', 'absences'))])
data_join2

# A tibble: 320 × 38
   school sex     age address famsize Pstatus  Medu  Fedu Mjob     Fjob   reason
   <chr>  <chr> <dbl> <chr>   <chr>   <chr>   <dbl> <dbl> <chr>    <chr>  <chr> 
 1 GP     F        18 U       GT3     A           4     4 at_home  teach… course
 2 GP     F        17 U       GT3     T           1     1 at_home  other  course
 3 GP     F        15 U       GT3     T           4     2 health   servi… home  
 4 GP     F        16 U       GT3     T           3     3 other    other  home  
 5 GP     M        16 U       LE3     T           4     3 services other  reput…
 6 GP     M        16 U       LE3     T           2     2 other    other  home  
 7 GP     F        17 U       GT3     A           4     4 other    teach… home  
 8 GP     M        15 U       LE3     A           3     2 services other  home  
 9 GP     M        15 U       GT3     T           3     4 other    other  home  
10 GP     F        15 U       GT3     T           4     4 teacher  health reput…
# ℹ 310 more rows
# ℹ 27 more variables: guardian <chr>, traveltime <dbl>, studytime <dbl>,
#   failures <dbl>, schoolsup <chr>, famsup <chr>, paid.x <chr>,
#   activities <chr>, nursery <chr>, higher <chr>, internet <chr>,
#   romantic <chr>, famrel <dbl>, freetime <dbl>, goout <dbl>, Dalc <dbl>,
#   Walc <dbl>, health <dbl>, absences.x <dbl>, G1.x <dbl>, G2.x <dbl>,
#   G3.x <dbl>, paid.y <chr>, absences.y <dbl>, G1.y <dbl>, G2.y <dbl>, …
…
data_join2 <- data_join2 |>
  mutate(school = as.factor(school),
         sex = factor(sex, levels = c('F', 'M'), labels = c('Female', 'Male')),
         Medu = factor(Medu, levels = c(4, 3, 2, 1, 0), labels = c('Higher_Ed', 'Secondary', '5th_to_9th', 'Primary', 'None')),
         Mjob = as.factor(Mjob))

Task 2: Summarize the Data (Very Basic EDA)

On the combined data set (data_join2) we look at how the data is stored and document any missing values.

First, to look at how the data is stored, we call the tibble.

data_join2

# A tibble: 320 × 38
   school sex      age address famsize Pstatus Medu      Fedu Mjob  Fjob  reason
   <fct>  <fct>  <dbl> <chr>   <chr>   <chr>   <fct>    <dbl> <fct> <chr> <chr> 
 1 GP     Female    18 U       GT3     A       Higher_…     4 at_h… teac… course
 2 GP     Female    17 U       GT3     T       Primary      1 at_h… other course
 3 GP     Female    15 U       GT3     T       Higher_…     2 heal… serv… home  
 4 GP     Female    16 U       GT3     T       Seconda…     3 other other home  
 5 GP     Male      16 U       LE3     T       Higher_…     3 serv… other reput…
 6 GP     Male      16 U       LE3     T       5th_to_…     2 other other home  
 7 GP     Female    17 U       GT3     A       Higher_…     4 other teac… home  
 8 GP     Male      15 U       LE3     A       Seconda…     2 serv… other home  
 9 GP     Male      15 U       GT3     T       Seconda…     4 other other home  
10 GP     Female    15 U       GT3     T       Higher_…     4 teac… heal… reput…
# ℹ 310 more rows
# ℹ 27 more variables: guardian <chr>, traveltime <dbl>, studytime <dbl>,
#   failures <dbl>, schoolsup <chr>, famsup <chr>, paid.x <chr>,
#   activities <chr>, nursery <chr>, higher <chr>, internet <chr>,
#   romantic <chr>, famrel <dbl>, freetime <dbl>, goout <dbl>, Dalc <dbl>,
#   Walc <dbl>, health <dbl>, absences.x <dbl>, G1.x <dbl>, G2.x <dbl>,
#   G3.x <dbl>, paid.y <chr>, absences.y <dbl>, G1.y <dbl>, G2.y <dbl>, …
…
